[
  {
    "id": 1,
    "authorId": 1,
    "teamId": 1,
    "name": "THX",
    "description": "Officiis maiores exercitationem.",
    "deadline": "2021-10-03T14:57:28.9774796+00:00",
    "createdAt": "2020-01-16T07:05:05.69777+00:00"
  },
  {
    "id": 2,
    "authorId": 1,
    "teamId": 1,
    "name": "Cambridgeshire",
    "description": "Praesentium est similique velit libero inventore totam.",
    "deadline": "2021-11-22T00:45:47.2056714+00:00",
    "createdAt": "2020-06-09T17:10:47.9077465+00:00"
  },
  {
    "id": 3,
    "authorId": 2,
    "teamId": 2,
    "name": "protocol",
    "description": "Est doloribus expedita vel distinctio.",
    "deadline": "2021-08-02T02:31:39.3283064+00:00",
    "createdAt": "2020-03-29T20:50:09.0468406+00:00"
  }
]
